caseStudy1
…
Find the underserved cities which are defined as cities with the lowest breweries per capita.

filterCity=targets0 %>%
  ungroup()%>%
  top_n(-25,brewPcap)
filterCity

## # A tibble: 25 x 10
##    StyleCat State City       nBeersPerStylePerCity nBeers   brewPcap  X2018 stylePct meanPct sdPct
##    <chr>    <chr> <chr>                      <int>  <dbl>      <dbl>  <dbl>    <dbl>   <dbl> <dbl>
##  1 Ale      CA    Sacramento                     4      5 0.00000197 508529    0.8     0.522 0.248
##  2 IPA      CA    Sacramento                    NA     NA 0.00000197 508529    0       0.374 0.226
##  3 Lager    CA    Sacramento                     1      5 0.00000197 508529    0.2     0.351 0.333
##  4 Other    CA    Sacramento                    NA     NA 0.00000197 508529    0       0.401 0.236
##  5 Stout    CA    Sacramento                    NA     NA 0.00000197 508529    0       0.194 0.173
##  6 Ale      MI    Detroit                        1      6 0.00000149 672662    0.167   0.522 0.248
##  7 IPA      MI    Detroit                        2      6 0.00000149 672662    0.333   0.374 0.226
##  8 Lager    MI    Detroit                        1      6 0.00000149 672662    0.167   0.351 0.333
##  9 Other    MI    Detroit                        2      6 0.00000149 672662    0.333   0.401 0.236
## 10 Stout    MI    Detroit                       NA     NA 0.00000149 672662    0       0.194 0.173
## # ... with 15 more rows
…
